module message-center

go 1.12

require (
	cloud.google.com/go v0.40.0 // indirect
	github.com/aristanetworks/goarista v0.0.0-20190607111240-52c2a7864a08 // indirect
	github.com/bilibili/kratos v0.1.0
	github.com/dgryski/go-farm v0.0.0-20190423205320-6a90982ecee2 // indirect
	github.com/go-openapi/inflect v0.19.0 // indirect
	github.com/go-openapi/runtime v0.19.2 // indirect
	github.com/go-swagger/go-swagger v0.19.0 // indirect
	github.com/gogo/protobuf v1.2.1
	github.com/golang/mock v1.3.1 // indirect
	github.com/golang/protobuf v1.3.1
	github.com/gorilla/handlers v1.4.0 // indirect
	github.com/gorilla/websocket v1.4.0
	github.com/jessevdk/go-flags v1.4.0 // indirect
	github.com/kisielk/errcheck v1.2.0 // indirect
	github.com/konsorten/go-windows-terminal-sequences v1.0.2 // indirect
	github.com/mattn/go-colorable v0.1.2 // indirect
	github.com/pkg/errors v0.8.1
	github.com/pquerna/ffjson v0.0.0-20181028064349-e517b90714f7
	github.com/prometheus/common v0.6.0 // indirect
	github.com/remyoudompheng/bigfft v0.0.0-20190512091148-babf20351dd7 // indirect
	github.com/sirupsen/logrus v1.4.2 // indirect
	github.com/smartystreets/goconvey v0.0.0-20190330032615-68dc04aab96a // indirect
	github.com/spf13/viper v1.4.0 // indirect
	github.com/toqueteos/webbrowser v1.1.0 // indirect
	github.com/tsuna/gohbase v0.0.0-20190502052937-24ffed0537aa // indirect
	golang.org/x/lint v0.0.0-20190409202823-959b441ac422 // indirect
	golang.org/x/mod v0.1.0 // indirect
	golang.org/x/net v0.0.0-20190613194153-d28f0bde5980
	golang.org/x/oauth2 v0.0.0-20190604053449-0f29369cfe45 // indirect
	golang.org/x/sync v0.0.0-20190423024810-112230192c58 // indirect
	google.golang.org/appengine v1.6.1 // indirect
	google.golang.org/genproto v0.0.0-20190611190212-a7e196e89fd3
	google.golang.org/grpc v1.21.1
	gopkg.in/AlecAivazis/survey.v1 v1.8.2 // indirect
	gopkg.in/go-playground/validator.v9 v9.29.0 // indirect
	honnef.co/go/tools v0.0.0-20190614002413-cb51c254f01b // indirect
)

replace (
	cloud.google.com/go => github.com/googleapis/google-cloud-go v0.26.0
	golang.org/x/crypto => github.com/golang/crypto v0.0.0-20190123085648-057139ce5d2b
	golang.org/x/lint => github.com/golang/lint v0.0.0-20181026193005-c67002cb31c3
	golang.org/x/net => github.com/golang/net v0.0.0-20190420063019-afa5a82059c6
	golang.org/x/oauth2 => github.com/golang/oauth2 v0.0.0-20180821212333-d2e6202438be
	golang.org/x/sync => github.com/golang/sync v0.0.0-20181108010431-42b317875d0f
	golang.org/x/sys => github.com/golang/sys v0.0.0-20180905080454-ebe1bf3edb33
	golang.org/x/text => github.com/golang/text v0.3.0
	golang.org/x/time => github.com/golang/time v0.0.0-20190308202827-9d24e82272b4
	golang.org/x/tools => github.com/golang/tools v0.0.0-20190328211700-ab21143f2384
	google.golang.org/appengine => github.com/golang/appengine v1.1.0
	google.golang.org/genproto => github.com/google/go-genproto v0.0.0-20180817151627-c66870c02cf8
	google.golang.org/grpc => github.com/grpc/grpc-go v1.20.1
)
